[
    {
        "id":1,
        "title": "NEWARK",
        "url": "https://d1whtlypfis84e.cloudfront.net/guides/wp-content/uploads/2020/02/06113218/download.jpg"
    },
    {
        "id": 2,
        "title": "LONG BEACH",
        "url": "https://cdn.pixabay.com/photo/2018/01/14/23/12/nature-3082832_1280.jpg"
    },
    {
        "id": 3,
        "title": "CARLSBAD BEACH",
        "url": "https://static.scientificamerican.com/sciam/cache/file/4E0744CD-793A-4EF8-B550B54F7F2C4406_source.jpg"
    },
    {
        "id": 4,
        "title": "ARUBA",
        "url" : "https://ychef.files.bbci.co.uk/976x549/p09zs3x0.jpg"
    }
]